##REQUIRED_FILE: Howell1.csv
##PRE_EXEC: wget --continue https://raw.githubusercontent.com/rmcelreath/rethinking/master/data/Howell1.csv
set datafile separator ";"
set grid
set key right bottom
set title 'height versus age for the !Kung people'
set xlabel 'age (years)'
set ylabel 'height (cm)'
plot [0:26] 'Howell1.csv' using 3:1 with points, \
    [2:18] 3.311 * x + 86.5867 lw 4 title "two point fit", \
    [2:18] 3.99026836995 * x + 79.6805438775 lw 4 title "least squares fit"
